<svg 
     viewBox="0 0 120 120"
     xmlns="http://www.w3.org/2000/svg">

  <rect  x="10" y="10"
        width="100" height="100"
        fill='none'
        stroke="#ff4f6a"
        r="0" >
         <animate  attributeName="rx" 
         dur="5s" repeatCount="indefinite"
         values="50;0;50"
            
                     />
                       
        </rect>

</svg>