<svg xmlns="http://www.w3.org/2000/svg" width="58" height="58" fill="none" viewBox="0 0 58 58">
    <path fill="#fff" fill-rule="evenodd" d="M58 29c0 16.016-12.984 29-29 29-3.003 0-5.9-.456-8.624-1.304l.02.007c-.276-5.528 2.909-10.354 3.824-11.495.948-1.183 1.584-1.839 2.953-1.812 7.716.151 12.177.09 13.378-.027 1.952-.189 7.244-1.812 9.014-5.177.783-1.488 1.074-2.81 1.436-4.45.127-.579.263-1.197.433-1.877.24-.761.002-1.33-.713-1.706L39.387 28.01c-.53-.087-.907-.188-1.131-.303-.327-.171-.599-.92-.63-1.045-.578-2.25-1.339-3.562-2.487-4.613-1.911-1.75-3.84-2.718-6.105-2.99-1.469-.14-4.067-.318-7.796-.536L20.44 7.8c-3.062 1.678-5.32 4.362-6.776 8.051-2.182 5.534-2.31 5.786-6.14 9.88-1.562 1.67-4.54 2.927-7.519 3.83A29.573 29.573 0 0 1 0 29C0 12.984 12.984 0 29 0s29 12.984 29 29z" clip-rule="evenodd"/>
    <path fill="#535A6A" fill-rule="evenodd" d="M47.765 29.599l2.956.56c.715.376.952.945.713 1.706-.242.968-.415 1.812-.593 2.595-1.398-.1-2.681-.39-3.38-.911-.522-.39-.567-.96-.567-1.412 0-.694.29-1.54.87-2.538zM29.804 28.14a2.408 2.408 0 1 0 0-4.817 2.408 2.408 0 0 0 0 4.816z" clip-rule="evenodd"/>
</svg>
