﻿<?xml version="1.0" encoding="utf-8"?>
<!DOCTYPE svg PUBLIC "-//W3C//DTD SVG 1.1//EN" "http://www.w3.org/Graphics/SVG/1.1/DTD/svg11.dtd">
<svg x="0" y="0" width="80" height="80" overflow="hidden" preserveAspectRatio="xMidYMid" font-size="0" xml:space="default" xmlns="http://www.w3.org/2000/svg" xmlns:xlink="http://www.w3.org/1999/xlink" xmlns:xml="http://www.w3.org/XML/1998/namespace" version="1.1">
  <g transform="translate(-172.45, -595.8)" xml:space="default" class="avatar" style="fill:#000000;">
    <path d="M226.9 642.5 C226.9 642 226.9 641.5 226.9 640.9 C225.8 640.9 224.4 640.5 224.4 640.5 C224.4 640.5 218.9 638.6 215.2 630.8 C215.2 630.8 215 636.1 219.4 640.4 C212.1 639.4 199.9 636.1 199.4 625.7 C199.2 625.7 199.1 625.8 198.9 625.8 C198 628.3 197.5 631.3 197.3 635.1 L197.2 636.8 L195.5 636.6 C195.3 636.6 195.1 636.6 194.9 636.6 C194.3 636.7 193.9 636.9 193.6 637.3 C193.3 637.6 193.2 638.1 193.3 638.6 L193.5 640.8 C193.7 641.8 194.7 642.6 195.7 642.4 C195.8 642.4 195.9 642.3 196 642.3 L197.5 641.8 L197.9 643.3 C200.2 652.1 207.2 657.9 212.2 657.9 C217.2 657.9 224.2 652 226.5 643.3 L226.9 642.5 z" pathLength="0" xml:space="default" style="fill:#FFFFFF;" />
    <path d="M212.5 649 L210.8 648.2 C208.2 648.9 205.5 649.1 205.5 649.1 C205.5 649.1 209 653.7 212.5 653.7 C216 653.7 219.5 649.1 219.5 649.1 C219.5 649.1 216.8 648.8 214.2 648.2 L212.5 649 z M212.5 646.2 C214.6 646.2 216.2 644.9 216.2 643.2 L214.2 643.2 C214.2 643.7 213.5 644.2 212.5 644.2 C211.5 644.2 210.8 643.7 210.8 643.2 L208.8 643.2 C208.8 644.8 210.5 646.2 212.5 646.2 z M211.9 610.7 C196.3 610.7 190.8 620.9 191.8 634.9 C191.8 634.9 191.8 634.9 191.8 634.9 C191.7 635 191.5 635.2 191.4 635.3 C190.6 636.3 190.2 637.6 190.4 638.9 L190.6 641.1 C191 643.5 193.1 645.3 195.5 645.3 C198.3 654 205.7 660.9 212.3 660.9 C217 660.9 221.9 657.5 225.5 652.5 C224.7 655.2 223.6 657.8 221.9 660.7 L225.6 660.7 C231 655.6 234.5 647.6 234.5 638.5 C234.7 623.2 227.5 610.7 211.9 610.7 z M226.7 643.3 C224.4 652.1 217.4 657.9 212.4 657.9 C207.4 657.9 200.4 652 198.1 643.3 L197.7 641.8 L196.2 642.3 C196.1 642.3 196 642.4 195.9 642.4 C194.8 642.6 193.8 641.8 193.7 640.8 L193.5 638.6 C193.4 638.1 193.5 637.7 193.8 637.3 C194.1 636.9 194.6 636.7 195.1 636.6 C195.3 636.6 195.5 636.6 195.7 636.6 L197.4 636.8 L197.5 635.1 C197.6 631.4 198.1 628.3 199.1 625.8 C199.3 625.7 199.4 625.7 199.6 625.7 C199.7 628.5 200.7 630.8 202.2 632.6 C200.7 632.9 199.7 633.7 199.2 635.1 L200.1 635.5 C200.5 634.4 201.4 633.8 202.9 633.6 C203.8 634.5 204.8 635.3 205.9 636 C205.8 636 205.7 636 205.6 636 C204.8 635.9 203.9 636 203 636.2 C202.6 636.3 202.1 636.5 201.7 636.8 C201.5 636.9 201.3 637.1 201.1 637.3 C200.9 637.5 200.7 637.8 200.6 637.9 L201.9 638.9 C202.3 638.6 202.8 638.4 203.4 638.2 C203.5 638.2 203.7 638.1 203.8 638.1 C203.9 638.9 204.5 639.5 205.3 639.5 C206.1 639.5 206.8 638.9 206.8 638 C207 638 207.2 638.1 207.3 638.1 C207.9 638.3 208.5 638.6 208.6 639 L209.6 639 C209.6 638.6 209.5 638.2 209.3 637.9 C212.7 639.3 216.3 640.1 219.2 640.5 C214.9 636.2 215 630.9 215 630.9 C218.7 638.7 224.2 640.6 224.2 640.6 C224.2 640.6 225.6 641 226.7 641 C226.7 641.5 226.7 642 226.7 642.6 L226.7 643.3 z" pathLength="0" xml:space="default" />
  </g>
</svg>