﻿<?xml version="1.0" encoding="utf-8"?>
<!DOCTYPE svg PUBLIC "-//W3C//DTD SVG 1.1//EN" "http://www.w3.org/Graphics/SVG/1.1/DTD/svg11.dtd">
<svg x="0" y="0" width="80" height="80" overflow="hidden" preserveAspectRatio="xMidYMid" font-size="0" xml:space="default" xmlns="http://www.w3.org/2000/svg" xmlns:xlink="http://www.w3.org/1999/xlink" xmlns:xml="http://www.w3.org/XML/1998/namespace" version="1.1">
  <g transform="translate(-2.550001, -937.65)" xml:space="default" class="avatar" style="fill:#000000;">
    <path d="M58.7 979.3 L57.1 979.3 L57.1 968.9 C57.1 964.5 49.7 960.2 42.2 960.2 C34.8 960.2 28 964.3 28 968.9 L28 979.3 L26.4 979.3 C24.9 979.4 23.7 980.8 23.7 982.5 C23.7 984.2 24.9 985.6 26.4 985.7 L28.2 985.7 L28 987.4 C28 987.5 27.4 993.1 27.4 996.4 C27.4 997.8 32.8 1001.9 38.7 1005.1 L42.4 1005.2 L46.1 1005.2 C52.1 1001.9 57.6 997.7 57.6 996.4 C57.6 993 57.1 987.4 57.1 987.3 L57 985.7 L58.8 985.7 C60.3 985.6 61.5 984.2 61.5 982.5 C61.4 980.7 60.2 979.3 58.7 979.3 z" pathLength="0" xml:space="default" style="fill:#FFFFFF;" />
    <path d="M42.3 994.7 C39.2 994.7 36.4 994.1 34.9 993.1 L33.8 994.8 C35.6 996 38.8 996.8 42.3 996.8 C46 996.8 49.4 995.9 51.1 994.6 L49.9 993 C48.5 994 45.5 994.7 42.3 994.7 z M50 979.2 C48.3 979 46.6 979.7 45.3 980.9 L45.8 977.2 L44.8 977.1 L43 989.2 L44 989.3 L44.6 985.2 L46.3 989.9 C46.3 990.4 45.9 990.8 45.4 990.8 C45.3 990.8 45.2 990.8 45.1 990.8 C45.2 990.6 45.2 990.4 45.2 990.2 L43.9 990.2 C43.9 990.8 43.1 991.3 42.3 991.3 C41.4 991.3 40.7 990.8 40.7 990.2 L39.4 990.2 C39.4 990.4 39.4 990.6 39.5 990.8 C39.4 990.8 39.3 990.8 39.2 990.8 C38.7 990.8 38.3 990.4 38.3 989.9 L40.2 985 L40.8 989.3 L41.8 989.2 L40.2 977.1 L40 977.1 L40 976.9 C39.7 976.9 33.6 975.7 31.7 975.7 C29.7 975.7 28.7 977.7 28.6 977.9 L30.4 978.7 C30.5 978.4 31 977.6 31.7 977.6 C33.1 977.6 37.5 978.4 39.4 978.7 L39.7 981 C38.4 979.6 36.6 978.9 34.8 979.1 C33.3 979.2 31.9 980 31.2 981.2 L32.1 981.7 C32.5 981 33.2 980.5 34.1 980.3 C34 980.5 33.9 980.8 34 981.1 C34.1 982 34.9 982.6 35.7 982.5 C36.6 982.4 37.2 981.6 37.1 980.8 C37.1 980.6 37 980.5 37 980.4 C37.8 980.7 38.5 981.1 39.1 981.8 L39.8 981.1 L40.3 984.5 L39.6 984.2 L37.1 989.9 C37.1 991.1 38.1 992.1 39.3 992.1 C39.7 992.1 40 992 40.3 991.8 C40.8 992.2 41.6 992.5 42.4 992.5 C43.2 992.5 44 992.2 44.5 991.8 C44.8 992 45.2 992.1 45.5 992.1 C46.7 992.1 47.7 991.1 47.7 989.9 L45.4 984.2 L44.8 984.4 L45.3 981.2 L45.9 981.7 C46.5 981.1 47.2 980.6 48 980.3 C47.9 980.4 47.9 980.6 47.9 980.7 C47.8 981.6 48.4 982.3 49.3 982.4 C50.2 982.5 50.9 981.9 51 981 C51 980.7 51 980.4 50.9 980.2 C51.7 980.5 52.5 981 52.9 981.6 L53.8 981.1 C52.9 980.2 51.6 979.4 50 979.2 z M64.4 982.5 C64.4 979.6 62.6 977.2 60.1 976.5 L60.1 968.9 C60.1 962.7 52.6 958.3 45 957.4 L45 947 L39 947 L39 957.4 C31.8 958.4 25 962.8 25 968.9 L25 976.5 C22.5 977.2 20.7 979.6 20.7 982.5 C20.7 985.3 22.5 987.7 24.9 988.5 C24.7 990.4 24.4 993.9 24.4 996.4 C24.4 997.4 25 998.5 26 999.7 C26.5 1000.3 27.1 1000.8 27.7 1001.4 C30.8 1004.1 35.2 1006.6 37.6 1008 L37.9 1008.2 L42.3 1008.3 L42.3 1008.3 L46.8 1008.3 L47.1 1008.1 C49.6 1006.7 54.3 1004 57.4 1001.2 C58.1 1000.6 58.6 1000 59.1 999.4 C60 998.3 60.5 997.3 60.5 996.4 C60.5 993.9 60.2 990.4 60.1 988.5 C62.6 987.7 64.4 985.3 64.4 982.5 z M58.7 985.7 L56.9 985.7 L57 987.3 C57 987.4 57.5 993 57.5 996.4 C57.5 997.8 52 1001.9 46 1005.2 L42.3 1005.2 L38.6 1005.1 C32.6 1001.8 27.3 997.7 27.3 996.4 C27.3 993 27.9 987.4 27.9 987.4 L28.1 985.7 L26.3 985.7 C24.8 985.6 23.6 984.2 23.6 982.5 C23.6 980.8 24.8 979.4 26.3 979.3 L28 979.3 L28 968.9 C28 965 32.9 961.5 39 960.5 L39 968.4 L45 968.4 L45 960.4 C51.5 961.3 57.1 965.1 57.1 968.9 L57.1 979.3 L58.7 979.3 C60.2 979.4 61.4 980.8 61.4 982.5 C61.4 984.2 60.2 985.6 58.7 985.7 z M52.8 972.2 C50.9 972.6 45.1 974.8 44.8 974.9 L45.5 976.8 C47.1 976.2 51.7 974.5 53.1 974.2 C53.7 974.1 54.4 974.8 54.6 975 L56.2 973.8 C56.1 973.6 54.8 971.8 52.8 972.2 z" pathLength="0" xml:space="default" />
  </g>
</svg>