﻿<?xml version="1.0" encoding="utf-8"?>
<!DOCTYPE svg PUBLIC "-//W3C//DTD SVG 1.1//EN" "http://www.w3.org/Graphics/SVG/1.1/DTD/svg11.dtd">
<svg x="0" y="0" width="80" height="80" overflow="hidden" preserveAspectRatio="xMidYMid" font-size="0" xml:space="default" xmlns="http://www.w3.org/2000/svg" xmlns:xlink="http://www.w3.org/1999/xlink" xmlns:xml="http://www.w3.org/XML/1998/namespace" version="1.1">
  <g transform="translate(-172.9, -424.6)" xml:space="default" class="avatar" style="fill:#000000;">
    <path d="M194.2 474.6 C194.2 474.7 194.3 474.8 194.3 475 C194.6 475.8 195.5 476.3 196.4 476.1 C196.5 476.1 196.6 476 196.7 476 L198.2 475.5 L198.2 475.6 L198.2 475.6 L198.6 477.1 C199 478.7 199.6 480.2 200.3 481.6 C203.4 487.7 208.8 491.6 212.8 491.6 C217.8 491.6 224.8 485.7 227.1 477 L227.5 475.5 L229 476 C229.1 476 229.2 476.1 229.3 476.1 C230.4 476.3 231.4 475.5 231.6 474.4 L231.8 472.3 C231.9 471.9 231.8 471.6 231.7 471.3 C231.7 471.2 231.6 471.1 231.5 471.1 C231.2 470.7 230.7 470.5 230.2 470.4 C230 470.4 229.8 470.4 229.6 470.4 L227.9 470.6 L227.9 470.5 L227.9 470.5 L227.8 468.8 C227.6 464.2 226.9 460.7 225.5 458 C223.2 453.5 219.1 451.5 212.8 451.5 C202.7 451.5 198.2 456.7 197.8 469 L197.7 470.7 L196 470.5 C195.8 470.5 195.6 470.5 195.4 470.5 C194.8 470.6 194.4 470.8 194.1 471.2 C193.8 471.5 193.7 472 193.8 472.5 L194.2 474.6 z" pathLength="0" xml:space="default" style="fill:#FFFFFF;" />
    <path d="M213.1 482.5 C210.3 482.5 207.7 481.4 206.3 479.6 L204.7 480.8 C206.5 483.1 209.6 484.5 213.1 484.5 C216.8 484.5 220.1 482.9 221.8 480.4 L220.1 479.3 C218.8 481.2 216 482.5 213.1 482.5 z M234.5 470 C234.3 469.7 234.2 469.4 234 469.1 C234 469.1 234 469.1 234 469.1 C234.1 468.3 234.2 467.5 234.2 466.6 C234.2 457.2 228.1 449.3 219.6 446.5 C220.4 445.3 220.8 443.9 220.8 442.4 C220.8 438.1 217.3 434.6 213 434.6 C208.7 434.6 205.2 438.1 205.2 442.4 C205.2 443.9 205.6 445.3 206.4 446.5 C198 449.3 191.9 457.2 191.9 466.5 C191.9 467.3 192 468.1 192 468.9 C192 468.9 191.9 469 191.9 469 C191.1 470 190.7 471.3 190.9 472.6 L191.1 474.8 C191.2 475.4 191.4 476 191.7 476.5 C192.5 478.1 194.2 479.1 196.1 479.1 C196.5 480.2 196.9 481.2 197.4 482.2 C200.8 489.4 207.1 494.6 213 494.6 C219.7 494.6 227 487.7 229.8 479 C232.2 479 234.4 477.2 234.7 474.7 L234.9 472.6 C235.1 471.9 234.9 470.9 234.5 470 z M213 451.6 C219.3 451.6 223.4 453.6 225.7 458.1 C226.8 460.2 227.4 462.9 227.8 466.1 C226.4 464.9 223.8 464.4 221.4 464.4 C218.6 464.4 215.3 465.1 214.4 466.9 L212.1 466.9 C211.1 465.1 207.9 464.4 205.1 464.4 C202.3 464.4 199.1 465 198.1 466.8 C198.9 456.2 203.5 451.6 213 451.6 z M220 471.5 C220.9 471.6 221.6 471 221.7 470.1 C221.7 469.7 221.6 469.3 221.4 469 C222.3 469.2 223.1 469.6 223.6 470.3 L224.4 469.7 C223.6 468.6 222.2 467.9 220.8 467.9 C219.2 467.8 217.6 468.5 216.4 469.7 C216.2 469.2 216.1 468.6 216.1 468.1 C216.1 467.4 218.1 466.5 221.4 466.5 C224.7 466.5 226.7 467.4 226.7 468.1 C226.7 471 224.3 473.4 221.4 473.4 C219.3 473.4 217.5 472.2 216.6 470.4 L216.8 470.6 C217.4 470 218.1 469.5 218.8 469.2 C218.7 469.4 218.6 469.6 218.6 469.8 C218.5 470.6 219.2 471.4 220 471.5 z M202.8 470.3 C203.3 469.6 204.1 469.2 205 469 C204.7 469.3 204.6 469.7 204.7 470.1 C204.8 471 205.6 471.6 206.4 471.5 C207.3 471.4 207.9 470.6 207.8 469.8 C207.8 469.6 207.7 469.4 207.6 469.2 C208.3 469.5 209 470 209.6 470.6 L209.9 470.3 C209 472.1 207.2 473.4 205.1 473.4 C202.2 473.4 199.8 471 199.8 468.1 C199.8 467.4 201.8 466.5 205.1 466.5 C208.4 466.5 210.4 467.4 210.4 468.1 C210.4 468.7 210.3 469.2 210.1 469.8 C208.8 468.5 207.3 467.9 205.6 467.9 C204.1 468 202.8 468.6 202 469.7 L202.8 470.3 z M231.9 472.4 L231.7 474.5 C231.5 475.6 230.6 476.3 229.4 476.2 C229.3 476.2 229.2 476.1 229.1 476.1 L227.6 475.6 L227.2 477.1 C224.9 485.9 217.9 491.7 212.9 491.7 C208.8 491.7 203.5 487.8 200.4 481.7 C199.7 480.3 199.1 478.8 198.7 477.2 L198.3 475.7 L198.3 475.7 L198.3 475.6 L196.8 476.1 C196.7 476.1 196.6 476.2 196.5 476.2 C195.6 476.3 194.7 475.8 194.4 475.1 C194.4 475 194.3 474.9 194.3 474.7 L194.1 472.5 C194 472 194.1 471.6 194.4 471.2 C194.7 470.8 195.2 470.6 195.7 470.5 C195.9 470.5 196.1 470.5 196.3 470.5 L198 470.7 L198 469.7 C198.7 473 201.7 475.4 205.1 475.4 C208.9 475.4 212 472.6 212.4 468.9 L214.2 468.9 C214.6 472.6 217.7 475.4 221.5 475.4 C224.6 475.4 227.3 473.4 228.3 470.7 L229.8 470.5 C230 470.5 230.2 470.5 230.4 470.5 C231 470.6 231.4 470.8 231.7 471.2 C231.8 471.3 231.8 471.4 231.9 471.4 C231.9 471.7 232 472 231.9 472.4 z M213.2 477.7 C214.4 477.7 215.4 476.8 215.4 475.7 L214.4 475.7 C214.4 476.3 213.9 476.7 213.2 476.7 C212.5 476.7 212 476.2 212 475.7 L211 475.7 C211 476.8 212 477.7 213.2 477.7 z" pathLength="0" xml:space="default" />
  </g>
</svg>