﻿<?xml version="1.0" encoding="utf-8"?>
<!DOCTYPE svg PUBLIC "-//W3C//DTD SVG 1.1//EN" "http://www.w3.org/Graphics/SVG/1.1/DTD/svg11.dtd">
<svg x="0" y="0" width="80" height="80" overflow="hidden" preserveAspectRatio="xMidYMid" font-size="0" xml:space="default" xmlns="http://www.w3.org/2000/svg" xmlns:xlink="http://www.w3.org/1999/xlink" xmlns:xml="http://www.w3.org/XML/1998/namespace" version="1.1">
  <g transform="translate(-171.2, -937.85)" xml:space="default" class="avatar" style="fill:#000000;">
    <path d="M226.3 971.8 L212.8 971.8 L204.5 963.5 L204.5 971.8 L197 971.8 C196.8 973.1 196.7 974.4 196.7 975.9 L196.6 977.6 L194.9 977.4 C194.8 977.4 194.7 977.4 194.5 977.4 C194.4 977.4 194.4 977.4 194.3 977.4 C193.7 977.5 193.3 977.7 193 978.1 C192.7 978.4 192.6 978.9 192.7 979.4 L192.7 979.6 C192.7 979.6 193 984.7 195.8 984.7 L197.3 984.7 L197.3 986.2 C197.3 995.2 209.5 1003.1 211.6 1003.1 C213.8 1003 225.9 995.2 225.9 986.2 L225.9 984.7 L227.4 984.7 C230.2 984.7 230.5 979.7 230.5 979.6 L230.5 979.4 C230.6 978.9 230.5 978.5 230.2 978.1 C229.9 977.7 229.4 977.5 228.9 977.4 C228.7 977.4 228.5 977.4 228.3 977.4 L226.6 977.6 L226.5 975.9 C226.5 974.5 226.4 973.1 226.3 971.8 z" pathLength="0" xml:space="default" style="fill:#FFFFFF;" />
    <path d="M233.5 979.7 C233.6 978.9 236.6 949.7 211.2 950 C185.8 950.3 189.7 979.7 189.7 979.7 C189.7 979.7 189.7 979.7 189.7 979.7 C189.8 982 190.7 985.4 193.2 986.9 C193.8 987.6 194.2 988.5 194.2 989.5 C194.2 991.4 192.9 993.1 191.1 993.5 C191.8 994 192.7 994.4 193.6 994.4 C194.7 994.4 195.6 994 196.3 993.3 C200.3 1000.7 209.1 1006 211.7 1006 C214.3 1006 222.8 1000.9 226.9 993.7 C227.6 994.4 228.6 994.9 229.8 994.9 C230.8 994.9 231.6 994.6 232.3 994 C230.5 993.6 229.2 991.9 229.2 990 C229.2 988.7 229.8 987.5 230.8 986.8 C230.7 986.8 230.6 986.8 230.5 986.7 C232.6 985.1 233.4 981.8 233.5 979.7 z M197 971.8 L204.5 971.8 L204.5 963.5 L212.8 971.8 L226.3 971.8 C226.5 973.1 226.6 974.4 226.6 975.8 L196.7 975.8 C196.7 974.4 196.8 973.1 197 971.8 z M230.6 979.3 L230.6 979.5 C230.6 979.6 230.3 984.6 227.5 984.6 L226 984.6 L226 986.1 C226 995.1 213.8 1003 211.7 1003 C209.5 1002.9 197.4 995.1 197.4 986.1 L197.4 984.6 L195.9 984.6 C193.1 984.6 192.8 979.6 192.8 979.5 L192.8 979.3 C192.7 978.8 192.8 978.4 193.1 978 C193.4 977.6 193.9 977.4 194.4 977.3 C194.5 977.3 194.5 977.3 194.6 977.3 C194.7 977.3 194.8 977.3 195 977.3 L195.4 977.4 C195.6 981.8 198.8 986.3 203.9 986.3 C207.6 986.3 210.7 983.8 211.6 980.4 C212.5 983.8 215.6 986.3 219.3 986.3 C224.3 986.3 227.5 981.8 227.7 977.5 L228.4 977.4 C228.6 977.4 228.8 977.4 229 977.4 C229.6 977.5 230 977.7 230.3 978.1 C230.5 978.4 230.6 978.8 230.6 979.3 z M211.5 988.6 C212.7 988.6 213.7 987.7 213.7 986.6 L212.7 986.6 C212.7 987.2 212.2 987.6 211.5 987.6 C210.8 987.6 210.3 987.1 210.3 986.6 L209.3 986.6 C209.3 987.7 210.3 988.6 211.5 988.6 z M211.7 992.3 L210.2 991.6 C207.9 992.2 205.5 992.4 205.5 992.4 C205.5 992.4 208.6 996.4 211.6 996.4 C214.6 996.4 217.7 992.4 217.7 992.4 C217.7 992.4 215.4 992.2 213 991.6 L211.7 992.3 z" pathLength="0" xml:space="default" />
  </g>
</svg>