﻿<?xml version="1.0" encoding="utf-8"?>
<!DOCTYPE svg PUBLIC "-//W3C//DTD SVG 1.1//EN" "http://www.w3.org/Graphics/SVG/1.1/DTD/svg11.dtd">
<svg x="0" y="0" width="80" height="80" overflow="hidden" preserveAspectRatio="xMidYMid" font-size="0" xml:space="default" xmlns="http://www.w3.org/2000/svg" xmlns:xlink="http://www.w3.org/1999/xlink" xmlns:xml="http://www.w3.org/XML/1998/namespace" version="1.1">
  <g transform="translate(-87.54999, -938.6)" xml:space="default" class="avatar" style="fill:#000000;">
    <g xml:space="default">
      <path d="M144.5 976.9 C144.2 976.9 143.9 976.9 143.6 977 L143.6 969.3 C143.6 963.7 139 959.1 133.4 959.1 L121.7 959.1 C116.1 959.1 111.5 963.7 111.5 969.3 L111.5 977 C111.2 976.9 110.9 976.9 110.6 976.9 C108.4 976.9 106.7 978.8 106.7 981.2 C106.7 983.6 108.4 985.5 110.6 985.5 C110.9 985.5 111.2 985.5 111.5 985.4 L111.5 987.5 C111.5 987.5 110 1007.3 127.5 1007.3 C145 1007.3 143.6 987.5 143.6 987.5 L143.6 987.5 L143.6 985.4 C143.9 985.5 144.2 985.5 144.5 985.5 C146.7 985.5 148.4 983.6 148.4 981.2 C148.4 978.9 146.7 976.9 144.5 976.9 z" pathLength="0" xml:space="default" style="fill:#FFFFFF;" />
    </g>
    <path d="M123.5 980 L124.3 979.5 C123.6 978.4 122.3 977.6 120.8 977.5 C119 977.3 117.3 978 116.1 979.4 L116.8 980.1 C117.4 979.5 118.1 979 118.8 978.8 C118.7 978.9 118.7 979.1 118.7 979.2 C118.6 980 119.2 980.8 120.1 980.9 C120.9 981 121.7 980.4 121.8 979.5 C121.8 979.2 121.8 979 121.7 978.7 C122.5 978.9 123.1 979.4 123.5 980 z M127.9 997.7 C126.5 997.7 125.5 997.4 125.1 997.1 L124 998.8 C124.9 999.4 126.4 999.7 128 999.7 C129.7 999.7 131.3 999.3 132.1 998.6 L130.9 997 C130.4 997.4 129.3 997.7 127.9 997.7 z M124.7 976.6 L124.7 982.1 C124.7 984.4 126.6 986.4 129 986.4 L129 984.4 C127.8 984.4 126.7 983.4 126.7 982.1 L126.7 975.4 L125.5 974.4 C123.6 974.8 118.2 975.4 116.4 972.9 L114.8 974.1 C117.1 977.3 122.4 977 124.7 976.6 z M149.9 981.3 C149.9 978.3 147.8 975.8 145.1 975.5 L145.1 969.4 C145.1 966 143.6 962.9 141.3 960.8 C142.3 960.3 142.9 960 142.9 960 C142.6 957.7 140.6 952.7 132.6 950.5 C124.9 948.3 113.8 958.3 112.6 949 C112.6 949 105.6 956 112.4 962.3 C110.9 964.3 110 966.7 110 969.4 L110 975.5 C107.3 975.8 105.2 978.3 105.2 981.3 C105.2 984.3 107.3 986.8 110 987.1 L110 987.6 C109.9 988.5 109.5 998 115.1 1004 C118.1 1007.3 122.3 1008.9 127.5 1008.9 C132.7 1008.9 136.9 1007.2 139.9 1004 C144.3 999.3 145 992.5 145.1 989.3 L145.1 989.3 L145.1 987.1 C147.8 986.7 149.9 984.3 149.9 981.3 z M144.5 984.1 C144.3 984.1 144.2 984.1 144 984 L142.1 983.5 L142.1 985.9 L142 985.9 L142.1 987.7 C142.1 987.8 142.6 996.7 137.7 1001.9 C135.3 1004.5 131.8 1005.8 127.5 1005.8 C123.2 1005.8 119.7 1004.5 117.3 1001.9 C112.4 996.6 113 987.8 113 987.7 L113 983.5 L111.1 984 C110.9 984.1 110.7 984.1 110.6 984.1 C109.3 984.1 108.2 982.8 108.2 981.3 C108.2 979.7 109.3 978.5 110.6 978.5 C110.8 978.5 110.9 978.5 111.1 978.6 L113 979.1 L113 969.5 C113 967.5 113.7 965.7 114.8 964.2 C115 964.3 115.2 964.4 115.4 964.6 C121.8 968.4 132.3 964.9 138.3 962.3 C140.6 963.9 142.1 966.5 142.1 969.5 L142.1 979.1 L144 978.6 C144.2 978.6 144.4 978.5 144.5 978.5 C145.8 978.5 146.9 979.8 146.9 981.3 C146.9 982.8 145.8 984.1 144.5 984.1 z M138.7 974.3 C135.6 972.5 130.3 974.5 129.7 974.8 L130.4 976.7 C131.8 976.2 135.7 975 137.6 976.1 C138.2 976.4 138.5 977 138.6 977.8 L140.6 977.5 C140.5 976 139.8 974.9 138.7 974.3 z M133 977.5 C131.5 977.6 130.2 978.4 129.5 979.5 L130.3 980 C130.7 979.3 131.4 978.8 132.2 978.6 C132.1 978.8 132 979.1 132.1 979.4 C132.2 980.2 132.9 980.8 133.8 980.8 C134.6 980.7 135.2 980 135.2 979.1 C135.2 979 135.1 978.8 135.1 978.7 C135.8 979 136.5 979.4 137.1 980 L137.8 979.3 C136.5 978 134.8 977.3 133 977.5 z M127.8 988.7 C126 988.7 124.3 988.3 123.5 987.8 L122.4 989.5 C123.6 990.3 125.6 990.8 127.8 990.8 C130.2 990.8 132.3 990.3 133.5 989.3 L132.3 987.7 C131.6 988.2 130 988.7 127.8 988.7 z" pathLength="0" xml:space="default" />
  </g>
</svg>