﻿<?xml version="1.0" encoding="utf-8"?>
<!DOCTYPE svg PUBLIC "-//W3C//DTD SVG 1.1//EN" "http://www.w3.org/Graphics/SVG/1.1/DTD/svg11.dtd">
<svg x="0" y="0" width="80" height="80" overflow="hidden" preserveAspectRatio="xMidYMid" font-size="0" xml:space="default" xmlns="http://www.w3.org/2000/svg" xmlns:xlink="http://www.w3.org/1999/xlink" xmlns:xml="http://www.w3.org/XML/1998/namespace" version="1.1">
  <g transform="translate(-258, -935.2001)" xml:space="default" class="avatar" style="fill:#000000;">
    <path d="M279.1 986.2 C279.3 987.2 280.3 988 281.3 987.8 C281.4 987.8 281.5 987.7 281.6 987.7 L283.1 987.2 L283.5 988.7 C285.8 997.5 292.8 1003.3 297.8 1003.3 C302.8 1003.3 309.8 997.4 312.1 988.7 L312.5 987.2 L314 987.7 C314.1 987.7 314.2 987.8 314.3 987.8 C315.4 988 316.4 987.2 316.6 986.1 L316.8 984 C316.9 983.4 316.8 983 316.5 982.7 C316.2 982.3 315.7 982.1 315.2 982 C315 982 314.8 982 314.6 982 L312.9 982.2 L312.8 980.5 C312.7 978.3 312.5 976.2 312.1 974.5 C311.4 973.4 310.5 972.6 309.5 971.9 C305.4 969 300.8 970.9 300.8 970.9 L307.8 976.2 C307.8 976.2 307.8 977.2 299.3 977.5 C292.8 977.7 286.7 975.2 283.7 972.9 C283.1 975.1 282.8 977.6 282.7 980.5 L282.6 982.2 L280.9 982 C280.7 982 280.5 982 280.3 982 C279.7 982.1 279.3 982.3 279 982.7 C278.7 983 278.6 983.5 278.7 984 L279.1 986.2 z" pathLength="0" xml:space="default" style="fill:#FFFFFF;" />
    <path d="M295 981.7 L295.5 980.8 C294.3 980.1 291.9 978.9 289.5 979 C286.2 979.2 285 981.3 285 981.4 L285.9 981.8 C285.9 981.7 286.8 980.1 289.6 979.9 C291.7 980 294.1 981.2 295 981.7 z M297.9 991.6 C299.1 991.6 300.1 990.7 300.1 989.6 L299.1 989.6 C299.1 990.2 298.5 990.6 297.9 990.6 C297.2 990.6 296.7 990.2 296.7 989.6 L295.7 989.6 C295.7 990.7 296.7 991.6 297.9 991.6 z M294.2 985.3 L294.2 984 L289.8 984 C288.7 984 287.7 982.8 287.7 982.8 L287.1 983.3 C287.1 983.4 288.1 985.3 289.8 985.3 L294.2 985.3 z M297.8 999.4 C301.2 999.4 304.2 997 306 994.8 L289.6 994.8 C291.3 997.1 294.4 999.4 297.8 999.4 z M306.3 979.1 C303.9 979 301.5 980.2 300.3 980.9 L300.8 981.8 C301.7 981.3 304.1 980 306.2 980.1 C308.9 980.3 309.8 981.9 309.9 982 L310.8 981.6 C310.8 981.4 309.7 979.3 306.3 979.1 z M306 984 L301.6 984 L301.6 985.3 L306 985.3 C307.7 985.3 308.7 983.4 308.7 983.3 L308.1 982.8 C308.1 982.8 307.1 984 306 984 z M318.9 980.9 C318.9 980.8 318.9 980.8 318.9 980.9 C318.9 980 319 979.2 319 978.3 C319 969.2 313.2 961.5 305.2 958.5 C306.4 957 307.1 955.1 307.1 953 C307.1 948 303 943.9 298 943.9 C293 943.9 288.9 948 288.9 953 C288.9 955.1 289.6 957 290.8 958.5 C282.7 961.5 277 969.2 277 978.3 C277 979.2 277.1 980 277.2 980.8 C277.2 980.8 277.2 980.8 277.1 980.9 C276.3 981.9 275.9 983.2 276.1 984.5 L276.3 986.7 C276.7 989.1 278.8 990.9 281.2 990.9 C284 999.6 291.4 1006.5 298 1006.5 C304.7 1006.5 312 999.6 314.8 990.9 C317.2 990.9 319.4 989.1 319.7 986.6 L319.9 984.5 C320.1 983.1 319.7 981.9 318.9 980.9 z M316.9 984.1 L316.7 986.2 C316.5 987.3 315.6 988 314.4 987.9 C314.3 987.9 314.2 987.8 314.1 987.8 L312.6 987.3 L312.2 988.8 C309.9 997.6 302.9 1003.4 297.9 1003.4 C292.9 1003.4 285.9 997.5 283.6 988.8 L283.2 987.3 L281.7 987.8 C281.6 987.8 281.5 987.9 281.4 987.9 C280.3 988.1 279.3 987.3 279.2 986.3 L279 984.1 C278.9 983.6 279 983.2 279.3 982.8 C279.6 982.4 280.1 982.2 280.6 982.1 C280.8 982.1 281 982.1 281.2 982.1 L282.9 982.3 L283 980.6 C283.1 977.7 283.5 975.1 284 973 C287 975.3 293.1 977.9 299.6 977.6 C308.1 977.3 308.1 976.3 308.1 976.3 L301.1 971 C301.1 971 305.7 969.1 309.8 972 C310.8 972.7 311.7 973.5 312.4 974.6 C312.8 976.4 313 978.4 313.1 980.6 L313.2 982.3 L314.9 982.1 C315.1 982.1 315.3 982.1 315.5 982.1 C316.1 982.2 316.5 982.4 316.8 982.8 C316.9 983.1 317 983.5 316.9 984.1 z" pathLength="0" xml:space="default" />
  </g>
</svg>