<svg xmlns="http://www.w3.org/2000/svg" width="14" height="11" fill="none" viewBox="0 0 14 11">
    <path fill="#61A8DE" d="M12.868.043L.292 4.696a.429.429 0 0 0 .037.824l3.195.896 1.193 3.593c.124.376.625.49.915.208l1.653-1.602 3.241 2.26c.397.277.962.071 1.063-.386L13.736.74c.105-.477-.39-.875-.868-.698zM11.29 2.206L5.45 7.111a.293.293 0 0 0-.104.19L5.12 9.2c-.007.061-.099.07-.118.01L4.078 6.38a.291.291 0 0 1 .134-.342l6.898-4.062c.158-.094.32.114.18.231z"/>
</svg>
